Busqueda rapida de politrcios por el nombre — buscar_puy • puy
…
#>  LUIS REDES, Jose
#>  LUISI, Hector
#>  LUJAMBIO, Lorena
#>  LUJAN , Luis
#>  LUNA DE PEREIRA, Maria
#>  LUSSICH, Arturo
#>  LUST, Eduardo
#>  LUSTEMBERG, Cristina
#>  LUSTENBERG, Cristina
#>  LUZ LAFON, Maria
#>  LUZ, Maximiliano
#>  LUZARDO, Roberto
#>  
#> 
#> # A tibble: 518 x 9
#>    politico         partido    fecha_inicio fecha_fin  legislatura cargo  status
#>    <chr>            <chr>      <date>       <date>           <dbl> <chr>  <chr> 
#>  1 LABACA AROCENA,~ Partido C~ 1938-05-25   1942-02-21          33 Diput~ Titul~
#>  2 LABANDERA, Juan~ NA         1854-03-07   1855-02-14           6 Diput~ Titul~
#>  3 LABANDERA, Juan~ NA         1855-02-15   1858-02-14           7 Diput~ Titul~
#>  4 LABAT, Juan      Partido N~ 1923-02-15   1926-02-14          28 Diput~ Titul~
#>  5 LABAT, Juan      Partido N~ 1926-02-15   1929-02-14          29 Diput~ Titul~
#>  6 LABAT, Juan      Partido N~ 1929-02-15   1932-02-14          30 Diput~ Titul~
#>  7 LABROUSE, Eduar~ NA         NA           1873-02-14          10 Diput~ Suple~
#>  8 LACALLE HERRERA~ Partido N~ 1972-02-15   1973-06-27          41 Diput~ Titul~
#>  9 LACALLE HERRERA~ Partido N~ 1985-02-15   NA                  42 Senad~ Titul~
#> 10 LACALLE POU, Lu~ Partido N~ 2000-02-15   2005-02-14          45 Diput~ Titul~
#> # ... with 508 more rows, and 2 more variables: circunscripcion <chr>,
#> #   sexo <dbl>
…
